<?xml version="1.0" encoding="UTF-8"?><svg width="560" height="120" version="1.1" viewBox="0 0 735 120" xmlns="http://www.w3.org/2000/svg">
 <path d="m697.34 29.55 1.1643 12.407 0.0153 4.4858 1.2334 2.1825-1.219 2.3032 7e-3 2.2429 0.0229 6.7287c0.066 4.4631 0.82835 8.8447 0.0865 13.402l-0.55206 4.2064-0.38028 4.0008-0.52939 4.1669-1.7989 4.5386 2.3221 1.8822 4.9112 1.0968 5.9558-1.7205 0.16323-0.6976-2.5284-3.3027-0.81816-1.3679 1.7601-10.494 1.6638 6.309 3.6618 4.538 4.3574 3.6277 4.9154 2.7564 5.6982-3.8095 0.73508-3.6858 3.3912-0.63699 2.7467-6.427-0.65889-0.38253-2.602 1.7434-6.8941 4.9248-4.0535-1.9052-4.3678-4.2763-2.6797-3.9872-1.8178-5.4371 6.3766-2.6521 6.1225-4.9145 2.5839-3.6466 1.3819-4.4707-0.84472-6.8565-1.1641-0.46844-2.845 5.9159-3.5833 4.9114-6.1486 4.3191-5.0882 1.8452c-0.36558-7.0049-0.91749-13.996-1.4506-20.99l-1.1793-10.103-0.61866-3.3979-0.61815-2.7977-0.95441-3.0682-1.0976-2.869-1.6297-3.87-2.2617-2.838-3.1147-0.3241-5.3547 2.4541 0.0117 0.5311 3.6772 0.02917 2.3212 0.61195 0.49817 3.7728z" stroke-width="1.0902"/>
 <path d="m671.31 92.782c-0.63525-0.08427-2.0784-0.41374-3.2066-0.73175l-2.0515-0.57873-3.2477-3.2477-3.3831-8.8442-0.32151-10.367 0.45724-2.8356 0.45755-2.8356 0.92753-2.7269c0.5099-1.4997 1.549-3.857 2.3088-5.2412 1.6547-3.0101 4.2876-6.5102 6.7986-9.0366l1.8362-1.8465 6.3832-3.0633 3.9261-0.46529 3.9953 2.175 4.0914 3.93 1.9208 3.8128 0.86597 4.08v9.7827l-0.40169 1.4478-0.4021 1.4478-1.6947 1.0997-2.696 0.44067c-2.703 0.44184-15.981 3.7397-18.869 4.6876l-1.5405 0.50489-1.3424 2.7443 0.65293 1.7088c0.35912 0.9398 1.0575 2.365 1.5515 3.1671l0.89827 1.4582 2.476 1.5616 4.6914-0.33551 2.4687-1.0885c1.3579-0.59873 4.549-2.3322 7.0869-3.853l4.6183-2.7637 1.0494 0.40258-0.20577 1.2689c-0.11327 0.69793-0.55527 2.0584-0.98209 3.024l-0.77637 1.7551h-1.9134l-1.2621 1.2621 0.0609 1.5835c0.0327 0.87097 0.0458 1.7711 0.0245 2.001l-0.0368 0.41761-6.7602 3.2132-2.6848 0.56873c-2.6591 0.56336-3.5266 0.6103-5.7641 0.31346zm3.6811-28.417 6.3332-1.4239 3.2078-1.3966 0.83598-1.5623v-8.1214l-1.2417-3.1036-1.8193-0.45643-3.477 1.6832-2.8774 2.6871c-1.5829 1.4782-3.4686 3.4997-4.1914 4.4914-0.72216 0.99326-2.0476 3.222-2.9452 4.9529l-1.6319 3.1471 0.54565 0.8829 0.4649-0.17844c0.25564-0.09812 3.3142-0.81906 6.7986-1.6023z" stroke-width="1.0822"/>
 <path d="m630.36 93.252c-0.71913-0.09229-2.0366-0.40226-2.929-0.68878l-1.6202-0.52097-1.3577-0.82461c-0.74675-0.45362-1.884-1.2362-2.5272-1.7392l-1.1691-0.91455-2.6436-3.1118-0.69175-1.3021c-0.38033-0.71617-0.902-1.9709-1.159-2.7876-0.25705-0.81729-0.68556-2.6665-0.95246-4.1117l-0.48512-2.6254 0.1014-1.0337c0.14693-1.4935 0.79311-4.8103 1.4299-7.3397 0.63397-2.5181 1.99-6.5133 2.6689-7.8625 1.0109-2.0104 3.5545-6.0476 5.1161-8.1205 0.90564-1.2023 2.3514-2.9086 3.2145-3.7898 0.8625-0.88192 2.2876-2.1478 3.1687-2.8126l1.5996-1.2094 3.792-1.8789 4.8993-0.03085 2.172 0.87643c1.1946 0.4822 2.3789 0.89359 2.63 0.91455l0.45726 0.03812 0.22852-2.5363 0.84837-1.2943 2.5159 0.29565 2.4725 1.1691 1.5952 1.5046v1.1447c0 0.62964-0.0643 1.4666-0.14305 1.8597l-0.14304 0.71482-0.90177 1.0246-0.90201 1.0246 0.28765 0.46526h0.83696l1.0561 0.85521-0.27145 3.1734c-0.31253 3.6529-0.54698 5.3968-1.0356 7.705-0.19137 0.90336-0.44745 2.1567-0.56915 2.7852-0.1219 0.62872-0.39082 1.8997-0.5979 2.8241l-0.37622 1.6807-0.88053 3.8593h-0.39633l-1.5262-1.7327c-0.0758-0.28288-0.13916-1.0579-0.1411-1.722l-4e-3 -1.2077-0.22335-1.6937-0.16854-2.9587-0.38156-2.9702-1.172-4.0076-2.6398-3.6057-1.6431-1.7271-1.2667-0.31802-1.0013 0.38239c-0.55068 0.2103-2.9436 0.80618-3.7385 1.3313l-1.4465 0.95473-2.1358 2.189-3.3697 5.0637-1.5983 3.3148c-1.7164 3.5614-1.8432 6.2319-2.7814 9.4623l-0.58719 2.0261-0.14157 1.7216-0.1416 1.7216-1.0702 1.2878 0.33649 0.65066c0.18503 0.35776 0.62966 0.89127 0.98786 1.1851l0.65133 0.53467 0.61253 1.0725 0.6123 1.0725 2.2404 1.7059 2.2156 1.0691 4.0063 0.54733 2.214-0.71731c1.2177-0.39452 2.8057-0.97894 3.5295-1.2986l1.3146-0.58149 0.8125 0.2125 1.3132-1.2549 3.2236-1.2321 0.42601-0.47074c0.23435-0.2589 0.6947-0.60981 1.0232-0.77966l0.597-0.30864 0.54244-1.279 1.2942-0.78602c0.71186-0.4324 1.6807-1.1352 2.1531-1.5622l0.85885-0.77597 1.815-2.8743 0.684-0.26252 0.55956 0.67436-0.25503 0.5066c-0.14012 0.27875-0.50772 1.5547-0.81662 2.8356l-0.56161 2.3287-2.2071 4.0295-3.0569 3.0592-1.312 0.6785-0.88168-0.07869-1.2721 2.5159-4.9108 3.0592-4.1162 1.3666-1.7885 0.2445c-1.9586 0.26775-3.0226 0.27144-5.0066 0.017z" stroke-width="1.137"/>
 <path d="m626.55 21.107 2.5601 1.5566 2.5799 2.9791 3.2668 4.4257 2.4731 4.3107 0.36909-0.03225 1.8154-4.2791 1.6624-3.6505 1.9706-4.0005 2.7724-3.2965 2.5529-1.1995-0.23387-0.52151-2.8598-1.0026-3.0308-0.27381-1.4541 0.69415 0.46224 1.385-2.1274 3.3816 0.98804 1.2451-1.6464 0.62273-0.87815 2.133-0.15882 2.7633-1.1544-3.418-1.3574-2.3195-3.1739-3.2123-2.5179-1.5662-1.8666 0.18928-1.3096 1.3569z" stroke-width="1.4197"/>
 <path d="m567.1 91.759-1.5454-1.9899v-2.0021l2.8031-0.60361 3.3528-0.11692 0.0172-11.513 0.24367-8.0921 0.49688-2.1182 0.49654-2.1182-0.1332-5.2358-0.13325-5.2358-1.7921-1.9052 0.23379-0.89445 0.23421-0.89445-1.3603-0.52198-1.7663 0.9292-4.048-1.5474-0.13793-0.68477-0.13796-0.68478 1.7966-1.9121 6.9772-2.563 4.5006-0.09561 2.2421 1.4693 1.1462 2.7431v4.0722l1.0116-4.05e-4 4.6299-5.1752 3.5176-1.7029h1.8621c1.0241 0 2.1642 0.11586 2.5331 0.25746l3.1544-1.6637 2.0264 2.2763 2.4482 1.4479 1.8973 3.1874 3.3014 6.0474 0.78527 5.8937c-0.0128 0.43713 0.0711 4.2617 0.29796 5.7588l-0.21642 13.787 1.2392 4.7316 0.60561 1.0477 2.4682 1.7727 4.6223-0.70265 0.38046 1.5915-1.9183 1.6685-3.3005 1.2693-3.542 0.31016-3.1415 1.1429-4.5214-1.4872-2.4885-1.2128-2.11-2.5806-0.0684-0.28521 2.2366-2.3667 1.0942-5.9634-0.25145-6.8183-0.31747-6.6976s-0.42911-3.8602-0.42595-4.2597l-0.72312-2.8095-0.65062-2.2863c-0.21533-0.75669-0.69292-1.8526-0.91627-2.2529-0.0845-0.15162-0.97383-1.2557-1.4888-1.7396l-2.6178-0.6305-3.1354 0.46808-1.8164 1.2722-1.1486 2.2972c-0.63186 1.2637-1.4423 3.2079-1.801 4.3188-0.35884 1.1125-1.1175 4.7511-1.6862 8.0841l-0.69338 4.0644-1.3784 0.71491c-0.15674 0.81484-0.68584 1.6362-0.41304 2.8117 0.53174 0.4901 1.027 1.1832 1.407 1.8576l-0.0374 2.8814 1.3772 3.9554 2.6541 1.9904 0.44038 1.6835 1.6597-0.8884 0.75099 2.231-1.1681 1.5489-2.1013 0.36145-2.1752 0.85284-5.0524 0.33706c-2.448 0.16332-3.081 0.14826-5.2141 0.30785l-3.8765 0.28966-1.4846-1.4846z" stroke-width="1.137"/>
 <path d="m537.12 92.581c-0.75818-0.27088-2.0026-0.87836-2.7656-1.3497l-1.3873-0.85745-0.9533-1.6266c-0.52419-0.89472-1.5943-3.4084-2.378-5.5844l-1.4246-3.9601 0.0705-12.192 1.6509-6.0942 3.0894-6.4784 2.0638-2.7001c1.1351-1.4851 3.0129-3.5979 4.1731-4.6942l2.1094-1.9949 5.7403-2.6515 3.7093-0.43936 3.3015 1.6122 4.7322 4.2339 1.2542 2.5454 1.2539 2.5454 0.12342 6.6763 0.12343 6.6763-0.7844 2.0557-1.7484 1.1344-3.4405 0.59307c-1.8922 0.32608-6.6914 1.4588-10.667 2.5171l-7.2279 1.9241-3.4287 1.6815 0.12868 4.7018 1.5547 3.515 2.674 1.1173 5.5502-0.0121 6.4252-2.6058 1.4474 0.77452 0.69618-0.62996c0.38282-0.34643 0.79083-1.0031 0.90725-1.4588l0.21124-0.82941 4.7932-3.2384h1.4022l1.09-0.77604c0.59915-0.42682 1.8829-1.1268 2.8523-1.5558l1.7627-0.77983 0.39819 0.39835-1.277 3.3442-1.4854 1.9625c-0.81713 1.0796-1.8276 2.6336-2.246 3.4534l-0.76045 1.4904-3.8573 3.3727-7.03 3.5374-3.626 0.9514-1.1793-1.6837-2.052 0.0033-1.524 0.93846c-0.83806 0.51622-1.7811 0.93657-2.0953 0.93391-0.31441-0.0021-1.1918-0.22645-1.9496-0.49719zm6.1398-27.309c2.8288-0.62654 6.216-1.4923 7.5284-1.9237l2.3852-0.78478 0.84149-1.5719 0.1027-8.8408-1.5855-2.6666-2.6682 0.07563-4.6828 3.1809-1.8103-0.45421-1.253 1.253 0.46698 1.8595-1.5107 1.9952c-0.83081 1.0974-2.2216 3.3022-3.0905 4.8997l-1.5798 2.9043v1.7096l0.85705-0.2483c0.47134-0.13658 3.1714-0.76082 5.9991-1.3878z" stroke-width="1.0706"/>
 <path d="m495.4 91.979c-0.60904-0.67077-1.425-1.6943-1.8126-2.2743l-0.70524-1.0546v-2.3697l0.83599-0.83644 0.83646-0.83645 4.7232-1.3734 0.24329-0.96891 0.24329-0.96889-0.13592-15.314-0.1359-15.314-1.7521-2.9829-2.9394-1.9809v-1.0077l4.052-1.3752c2.2286-0.75639 4.4377-1.3804 4.9063-1.3863l0.85309-0.0109 2.2104 2.7725 0.54555 1.7062c0.30035 0.93824 0.70828 1.882 0.90672 2.0971l0.36107 0.39106 6.2137-6.4522 3.6255-0.97317 3.2175 0.86626 3.6197 2.6619 1.0183 1.7712c0.56006 0.974 1.1445 2.3782 1.2989 3.1196l0.28089 1.3484-0.48082 2.7037c-0.26457 1.4868-0.96507 4.3059-1.557 6.2649l-1.0761 3.5609-5.0468 5.1703-0.52371-0.52399 1.4596-5.9539-0.48513-8.7393-0.86113-0.86115-4.7359 1.4932-1.3134 1.7858c-0.7223 0.9821-1.5787 2.4033-1.9025 3.1589l-0.58901 1.373-2.132 14.046v5.2129l0.62396 1.2065c0.34294 0.66353 0.87091 1.2989 1.173 1.4118 0.30173 0.11277 2.8522 0.06788 5.6686-0.0998l5.1193-0.30481 0.7709 0.68994-1.1695 1.5331c-0.6431 0.84326-1.7914 1.9408-2.5515 2.439l-1.382 0.90587-1.8441 2.8135-2.2312 1.4616-4.114 0.30866c-2.2627 0.16975-5.9368 0.44335-8.1644 0.60816l-4.052 0.29927-1.1074-1.2193z" stroke-width="1.1987"/>
 <path d="m466.21 92.759-2.337-0.64195-4.5144-3.0918-3.3315-3.8959-2.4762-5.1-0.93594-4.5017 0.0181-7.8196 0.82596-5.7135 0.9122-2.6671c1.2011-3.5106 3.1491-7.3783 4.7181-9.3684l1.2631-1.6025 2.6649-1.9016c1.466-1.0459 3.7099-2.3803 4.9853-2.9649l2.3221-1.0632 6.3008-0.51338 5.9316 1.3951 3.5504 2.0807 2.6276 3.3175 1.475 3.1275c0.81124 1.7201 1.7795 4.2725 2.1516 5.6771l0.67675 2.5496 0.4748 8.0732-0.68733 3.6119c-0.37823 1.9865-0.88383 4.3106-1.123 5.1678l-0.43554 1.5574-2.9544 1.743v0.65764c0 0.36161 0.23603 1.0352 0.52399 1.4968l0.524 0.83923-0.84263 1.5712c-0.4633 0.86427-1.734 2.5474-2.8233 3.741l-1.9807 2.1699-4.5356 2.5049-10.624 0.20607-2.337-0.64195zm10.179-8.7996 2.3433-0.53121 3.2517-3.2398 0.82563-1.9267 0.82613-1.9267 0.9368-6.0376-0.28253-5.9697c-0.15526-3.2835-0.27488-6.8607-0.26494-7.9426l0.018-1.9738-1.1475-0.75184c-0.63139-0.41365-2.1656-1.5808-3.4092-2.5942l-2.2614-1.8418h-2.7876l-4.3617 1.2958-2.7375 2.3034-3.2323 5.0023-0.25906 1.5427c-0.14263 0.84858-0.34844 1.8685-0.4574 2.2674-0.1088 0.39862-0.95295 1.6382-1.8753 2.7541l-1.6768 2.0294v1.3136l1.5685 1.3429 0.58402 4.9676 3.6738 7.756 1.2454 0.88675c1.4698 1.0467 3.6132 1.7163 5.6642 1.7696 0.81123 0.02121 2.5291-0.20071 3.8181-0.49302z" stroke-width="1.1941"/>
 <path d="m382.97 5.3831 2.053 3.8691 1.2086 3.8418c0.71626 0.24294 1.4068 0.53165 1.8229 1.31-0.41122 0.78485-1.0318 1.3298-1.8328 1.6677l1.2462 4.5091 1.8718 9.9688 0.78609 9.7505 0.98428 1.8243 0.10991 10.515-0.51403 6.542c0.0975 0.37441 0.76292 0.87166 1.0931 1.1065 0.42714 0.32326 0.3153 1.0385 0.13095 1.411-0.36335 0.35537-1.1404 0.3706-1.4624 0.65944-0.10484 0.38255 0.18541 1.013 0.27811 1.5195l-1.8601 10.942-2.1181 9.7634-7.5375 3.1093-1.3338 1.62-0.74901 2.2256 0.98724 1.6573 2.869 1.5107 9.2441 0.45234 9.1572-0.84143 6.3242-0.92502 4.9069-0.95997 10.659-4.3356-0.15596-0.48301-8.7215-0.07498-5.5731-0.45171-2.9247-0.61483-0.60686-0.49451-5.606-1.4203 3.4544-29.595 3.7435 9.642 0.90301 0.7272 3.9323 7.3669c2.1568 4.1587 4.8104 6.6925 7.5928 8.8046 2.4505 2.4817 5.0109 4.1716 8.8226 6.4627 3.5919 1.5434 7.2524 3.4131 10.904 4.0982 3.028 0.6338 5.097-0.02142 6.5126-0.68242 1.9311-0.99078 3.0792-2.1798 4.5674-3.7925 1.404-1.4784 1.8066-3.343 2.646-5.1411l-0.70634-5.9342-3.1458-3.5103-3.4833-1.9094-8.0773 2.6261 0.24642 0.51064 7.5561-0.02898 2.2934 1.574 0.71703 1.7782 0.50363 2.8504-2.64 2.685-3.5469 0.87423c-2.341-0.10955-4.54-0.91839-6.7289-1.7775l-6.9641-5.8227-5.9326-4.9174c-0.78519-0.79615-1.5392-1.6853-2.2282-2.7684l-6.6537-12.509-5.3131-12.138 10.516-3.731c0.50011 0.11813 1.0002 0.18953 1.5003-1e-6l7.2849-6.1001c2.0752-2.0246 3.3776-4.2825 4.6552-6.5478l4.2508-7.8042 3.2434-7.6609 1.4431-6.4887 5.1159-0.17088 1.2389-1.7521-1.9384-1.886-3.5386-1.3299-4.8011-0.61767-5.8637 0.89104-5.9452 2.2362 0.17152 0.9001 3.9125 0.48481 2.7487 0.41978 1.6798 0.43575-3.5506 8.0576-8.6871 12.106c-2.327 2.7706-4.2721 4.9784-7.5841 7.0566-4.003 2.187-7.8468 2.7065-11.698 3.3123l-7.0289-29.53c0.75309-0.21127 3.235 0.44883 3.8325-0.45419 0.96528-1.0165 0.71212-1.5772 0.31309-2.6289-0.5005-1.2593-2.0778-1.8994-3.6096-2.5681l-3.5861-1.1068-4.0722-0.66662-4.2874 0.052325-4.6992 1.1328-4.7257 1.7333 0.10368 0.9421 5.0247 0.93558z" stroke="#000" stroke-width=".27046"/>
 <path d="m327.94 102.55-1.1528-1.4843v-1.4935l2.0909-0.45025 2.5009-0.08722 0.0127-8.5879 0.18177-6.0361 0.37063-1.5799 0.37038-1.5799-0.0993-3.9055-0.0994-3.9055-1.3367-1.4211 0.1744-0.66718 0.17469-0.66718-1.0146-0.38934-1.3174 0.69311-3.0196-1.1541-0.20582-1.0216 1.3401-1.4263 5.2045-1.9118 3.3571-0.07132 1.6725 1.0961 0.85495 2.0462v3.0376l0.75456-3.01e-4 3.4535-3.8604 2.6238-1.2702h1.3889c0.76389 0 1.6143 0.08643 1.8894 0.19206l2.3528-1.241 1.5117 1.6979 1.8263 1.0801 1.4152 2.3776 2.4626 4.5108 0.58577 4.3963c-0.0103 0.32606 0.0529 3.1789 0.22225 4.2957l-0.16143 10.283 0.92434 3.5294 0.45174 0.78146 1.841 1.3223 3.4479-0.52413 0.28379 1.1872-1.4309 1.2445-2.462 0.94688-2.6421 0.23135-2.3433 0.85243-3.3724-1.1092-1.8562-0.90469-1.574-1.925-0.051-0.21274 1.6683-1.7653 0.81617-4.4483-0.18755-5.0859-0.23681-4.9959s-0.32008-2.8793-0.31773-3.1773l-0.53938-2.0957-0.4853-1.7054c-0.16062-0.56443-0.51687-1.3819-0.68348-1.6805-0.063-0.1131-0.72638-0.93657-1.1104-1.2977l-1.9527-0.4703-2.3388 0.34915-1.3549 0.94895-0.85674 1.7135c-0.47132 0.94262-1.0758 2.3927-1.3434 3.2215-0.26767 0.82993-0.83356 3.5439-1.2579 6.03l-0.77117 4.5203-0.0606 4.677 1.0273 2.9504 1.9798 1.4847 0.32848 1.2558 1.238-0.66268 0.56017 1.6641-0.87129 1.1554-1.5674 0.26961-1.6225 0.63615-3.7687 0.25143c-1.8261 0.12181-2.2981 0.11058-3.8892 0.22962l-2.8915 0.21606-1.1074-1.1075z" stroke-width=".84803"/>
 <g transform="matrix(1.0902 0 0 1.0902 -7.5256 -5.6707)" stroke-width=".77789">
  <path d="m299.13 45.881-1.1277 0.80623-0.80096 1.35 0.11473 2.7578 0.97603 1.6293 2.2679 0.38678 2.6501-0.23924 1.6747-0.88185-0.51848-1.7893 1.3018-0.63761-1.9843-3.1597-2.5523-0.31916z"/>
  <path d="m295.51 90.119-1.4521-2.2074 0.0782-0.93646 2.1945-2.3451 2.179-0.07628 0.16673-5.5369 0.37146-3.02 0.13524-3.9661 0.0328-2.3578 0.21554-2.674-0.0912-3.5825-1.2262-1.3036 0.15997-0.61201 0.16024-0.61202 0.70969-1.2701-0.38347-0.9706-1.7424-0.03024-0.0941-0.46855-0.0944-0.46855 3.8133-1.0103 1.5341-0.31728 1.7842-0.30895 1.2057 0.92449 0.57713 1.5556-1.0064 3.1887-0.17037 0.81954 0.97314 1.6825s0.35293 3.4872 0.79404 5.3042l-1.055 8.6531-0.0556 4.2902 0.94871 1.4479 2.3795 1.0526 0.30132 1.1519 1.1414 1.4378 0.26313 1.5657-2.3311 1.2066-3.0462 0.20504c-1.6749 0.11274-4.2377 0.29411-5.6972 0.4033l-2.6525 0.19819-1.0159-1.0159z"/>
 </g>
 <path d="m283.81 92.972-0.90833-0.17547-1.6458-2.0925v-1.4196l-1.1508-0.9551-2.4691 1.0393c-1.3578 0.57152-3.8945 1.5099-5.6378 2.0851l-3.1683 1.0462-7.3992 0.46291-4.324-1.4358-3.1436-2.8401-1.2269-4.1327v-3.8887l1.9741-5.4385 3.0496-4.4258 4.5517-3.2851 9.7788-4.7634 7.1754-1.7899 1.7108-1.3854-0.89978-7.9198-1.4708-3.0088-6.5164-0.22943-6.5166 3.1683-3.0553 2.2669c-1.6804 1.2467-3.2895 2.5107-3.5754 2.8079-0.28611 0.2976-1.0603 0.78982-1.7539 1.3007l-2.1078 1.5526-0.49016-0.48203-0.48975-0.48202 2.2066-3.0238c0.60447-1.5274 1.9593-3.3794 2.6728-4.5794l1.2972-2.1811 2.393-2.007c1.3159-1.104 3.1554-2.4536 4.0881-2.9999 0.93192-0.54629 2.513-1.2842 3.5141-1.6404l1.8199-0.64757 5.8616-0.03287 4.3565 1.9952 2.9853 2.6213 1.9764 4.2224 0.92665 4.4014 0.39202 5.7436c0.21593 3.1581 0.39506 7.3462 0.3981 9.3068l9e-3 3.5645h0.38338c1.2548 0.9063 1.3032 3.3226 0.82911 4.4249l-1.2121 2.5919v1.5384h0.4301c0.23625 0 1.4736-0.53531 2.7497-1.1899 3.4194-1.7537 5.9755-2.884 6.5206-2.884h0.48247v0.37857c0 0.20822-0.74601 1.5018-1.6576 2.8742l-1.6576 2.4956-1.0495 1.9469-0.51583 2.0256-1.2301 1.833-3.4648 2.6284-2.2128 0.6492c-1.217 0.35703-2.317 0.62398-2.4442 0.59348-0.12722-0.03073-0.64027-0.13444-1.1402-0.23098zm-14.571-9.2745 3.1297-0.59877 2.304-1.0506c1.267-0.57802 2.9922-1.5254 3.8334-2.1059l1.5295-1.0552 1.6259-2.631v-3.404l-2.0001-1.9997h-1.5669l-1.2244-0.49472-1.5592 0.06232-5.5158 1.7036-1.5018 1.3277c-0.82617 0.73015-2.3658 1.937-3.4218 2.6818l-1.92 1.3545-2.8643 1.0059c-0.5459 0.80826 0.75395 2.3542 0.60101 2.8694l-0.27823 0.93639 1.3086 1.9968h4.3891z" stroke-width="1.1449"/>
 <path d="m213.64 24.286 2.1191 17.672 0.099 17.942c0.066 4.4631 0.82835 8.8447 0.0865 13.402l-0.55206 4.2064c0.7529 0.61278 1.1965 1.3675 0.99505 2.4182-0.31503 0.77758-0.83964 1.1899-1.3753 1.5828l-0.52939 4.1669-1.7989 4.5386 2.3221 1.8822 4.9112 1.0968 5.9558-1.7205 0.16323-0.69761-2.5284-3.3027-0.81817-1.3678 1.7601-10.494 1.6638 6.309 3.6618 4.538 4.3574 3.6277 4.9154 2.7565 5.6982-3.8095 4.1263-4.3227 2.7467-6.427-0.65889-0.38253-2.602 1.7434-6.8941 4.9248-4.0535-1.9052-4.3678-4.2763-2.6796-3.9872-1.8178-5.4371 6.3766-2.6521 4.3503-3.2459 3.2838-3.0316 2.2787-4.0872 0.59514-6.8827-1.0418-0.69961-4.0097 5.1975-4.5236 4.0618-5.4304 3.4771-5.0882 1.8452c-0.17426-3.365-0.39215-6.7268-0.63068-10.087-0.0229-0.32206-1.1255-0.37908-1.6196-0.82459-0.4399-0.3967-0.2497-1.5232-0.0602-1.6598 0.62015-0.44703 1.4615-0.52401 1.4114-1.1956-0.17949-2.4076-0.36525-4.8149-0.54877-7.2225l-1.4439-10.272-0.41822-2.869-0.96336-3.2671-0.55904-2.8899-0.41825-2.869-1.3597-2.7373-1.8239-1.988-2.4906-0.99373-2.3068 0.74715-4.4999 3.1798-1.2624 1.6808 1.2706 0.73239 4.7766-1.134z" stroke-width="1.0902"/>
 <g transform="matrix(1.0902 0 0 1.0902 -.18096 -3.8289)" stroke-width="1.042">
  <path d="m173.54 87.644-1.3608-1.3608-0.95977-3.1038 1.9184-1.1115 1.5012-1.7765 2.9188-0.10217 0.14013-4.5365 1.0263-0.59619c0.17554-0.39522 0.21585-1.2952-0.0864-1.5826-0.32869-0.1915-0.91218-0.45066-0.85644-0.7014l0.73951-5.6523-0.0608-3.7058 0.4551-1.9414-0.1225-4.7988-0.1221-4.7988-0.26299-5.0872-0.51366-1.3001-2.334-0.0405-0.12604-0.62763-0.12644-0.62763 5.108-1.3534 2.055-0.425 2.39-0.41385 1.6151 1.2384 0.77307 2.0837-1.348 4.2713-0.22822 1.0978 1.3035 2.2538s0.10342 10.122 0.69429 12.556l-1.0438 6.1402-0.0745 5.7468 1.2708 1.9395 3.1874 1.41 0.40362 1.543 1.5211-0.81425 0.36029 4.8374-3.1226 1.6163-4.0805 0.27466c-2.2436 0.15102-5.6764 0.39396-7.6315 0.54022l-3.5529 0.26547-1.3608-1.3608z"/>
  <path d="m178.66 27.116-0.78533 0.94466c0.37143 0.59034 0.69051 1.1807 0.34139 1.771-0.57148 0.77966-1.2481 0.37757-1.912 0.1183l-0.78533 0.94466 1.8863 4.5489 4.8395 1.0045 1.5463-1.6596 2.4453-0.32852 1.0124-3.0735 0.0675-2.7124-2.6887-1.6974-3.4189-0.42752z"/>
 </g>
 <path d="m151.65 91.717-1.4835-1.4835-2.0215-3.9889v-2.0005l1.0067-0.62205 6.8785-0.03177 0.24346-8.0854 0.24348-8.0854 0.49645-2.1165 0.49614-2.1165-0.13311-5.2315-0.13312-5.2315-1.7907-1.9036 0.23361-0.89371 0.234-0.89371-1.3591-0.52153-1.7648 0.92844-4.0447-1.5461-0.13783-0.68422-0.13785-0.68422 1.795-1.9105 6.9713-2.561 4.4968-0.09554 2.2402 1.4681 1.1452 2.7409v4.0689l1.0108-4.05e-4 4.626-5.1709 3.5146-1.7014h1.8605c1.0232 0 2.1624 0.11576 2.5308 0.25726l0.67046 0.2573 0.7266 1.911h2.2945l2.0723 2.2234 3.3344 6.9027-0.0215 0.79441c-0.0129 0.43676-0.34783 2.0385-0.74397 3.5592l-0.72093 2.7648-3.5652 1.5928-2.1482 2.0527-4.8279-2.166-0.43915-0.96355-0.43879-0.96355 0.66985-0.41412 1.4459 1.5977h2.1459l1.324-1.0108 0.62208-1.8194c0.34222-1.0007 0.62484-2.1459 0.62808-2.5451l8e-3 -0.72578-1.0108-1.0108c-0.55582-0.55585-1.0108-1.1525-1.0108-1.326 0-0.17347-0.42125-0.71085-0.93571-1.1944l-0.93557-0.87919h-4.4161l-1.8149 1.2711-1.1475 2.2953c-0.63134 1.2627-1.4411 3.205-1.7995 4.3152-0.35855 1.1117-1.1165 4.7472-1.685 8.0773l-1.033 6.0549-0.0813 6.265 1.3853 2.1144 3.4748 1.5371 0.44002 1.6821 1.6582-0.88767 1.586 0.99021 2.0086-1.0753 1.1429 0.28525c0.62851 0.15689 1.4158 0.51952 1.7495 0.80572 0.33365 0.28634 1.1104 0.64021 1.7264 0.78675l1.1202 0.26623 1.6873-0.903 0.77383 0.77383-1.3854 1.3853-1.6388-0.42872-1.0406 0.55988c-1.5811 0.85093-4.8843 1.8275-6.1802 1.8275h-1.1569l-3.4044 1.762-4.4485 0.29943c-2.4458 0.16462-6.1882 0.42947-8.3195 0.58892l-3.8734 0.28942-1.4835-1.4835z" stroke-width="1.1362"/>
 <path d="m109.39 122.12c-0.76762-0.67394-1.6495-1.7164-1.9597-2.3161l-0.56396-1.0907v-3.1878l1.9111-1.9107 0.69881-0.0124c0.38451-6e-3 1.0366-0.26788 1.4494-0.58027l0.75054-0.56781 0.58301-4.0928 0.0562-17.762-0.80611-1.5057h-0.69415c-0.3816 0-1.6228-0.27577-2.7577-0.61294l-2.0634-0.61293-1.8531-1.8531v-1.2033l4.4774-0.03222 3.5035-1.7195 0.22242-27.246-0.92429-3.3683-1.6339-1.0596-6.8134-0.54531v-0.93281l3.4432-3.4927 9.8529-4.4542 0.74976 0.23794c0.41222 0.13086 1.2744 0.6794 1.9154 1.2188l1.1656 0.98101v0.52159c0 0.2868 0.27536 0.79678 0.61175 1.133l0.61179 0.61177h8.03l3.3745 0.9779c1.8559 0.53792 4.221 1.4059 5.2509 1.9293 1.0323 0.52316 3.2688 1.9997 4.9711 3.2812l3.0919 2.3298 2.1373 3.0837 1.1144 3.7029v5.255l-1.4568 4.6797-2.88 5.1499-4.6835 5.0062-2.5944 1.9119c-1.4268 1.0513-3.4701 2.3452-4.5396 2.875-0.60942 0.3016-1.8086 0.78813-3.1826 1.3017-0.27637 0.10331-0.80766-0.54807-1.605-0.62774-0.42807-0.04278-0.9308 0.27781-0.96822 0.48772-0.0845 0.47389-0.0833 0.74992-0.66523 1.2838-2.4623 0.81504-4.8701 1.6251-5.3521 1.8l-0.87569 0.31769v16.791l1.8792 1.8792 1.1038 0.23396c0.60713 0.12868 1.3985 0.39258 1.758 0.58613l0.65416 0.35205 1.6973-0.034c0.93362-0.0186 2.5917 0.0889 3.6846 0.23923l1.9874 0.27329 2.4736-1.279 1.1462 0.2517c0.63042 0.13846 1.9313 0.25175 2.8909 0.25175 0.95961 0 1.7448 0.082 1.7448 0.18204 0 0.10019-0.63279 0.44619-1.4059 0.76919-1.4182 0.59272-4.4697 2.5068-6.518 4.0927l-1.1116 0.85888-5.0644 1.4047-3.6104 2.2955-2.9194 0.82478c-1.6056 0.45357-3.8106 1.0813-4.9011 1.395l-1.9807 0.57018h-3.2127l-1.3957-1.2254zm17.191-41.782 3.4456-1.7312 6.2771-5.0372 3.7592-4.5397 2.226-4.6718 3e-4 -1.6736 3.1e-4 -1.6736-0.56977-1.102c-0.3134-0.60633-1.1132-1.5594-1.7774-2.1183l-1.2076-1.016-4.4231-1.3289-6.6191-0.02068-4.3027 0.97246-2.5104 1.5266v23.328l0.68094 0.39683c0.3746 0.21826 0.88232 0.40229 1.1283 0.40849 0.24599 0.0062 1.9974-0.76726 3.8907-1.7195z" stroke-width="1.0939"/>
 <path d="m90.358 93.195-0.90835-0.17547-1.6458-2.0925v-1.4196l-1.1508-0.9551-2.4691 1.0393c-1.3578 0.57152-3.8945 1.5099-5.6379 2.0851l-3.1683 1.0462-7.3992 0.46291-4.324-1.4358-3.1436-2.8401-1.2269-4.1327v-3.8887l1.9741-5.4385 3.0496-4.4258 4.5517-3.2851 9.7788-4.7634 7.1754-1.7899 1.7108-1.3854-0.89977-7.9198-1.4708-3.0088-6.5165-0.22943-6.5166 3.1683-3.0553 2.2669c-1.6804 1.2467-3.2895 2.5107-3.5755 2.8079-0.2861 0.29761-0.96079 1.091-1.4995 1.7634l-0.97911 1.2224-0.49014-0.48202-0.48975-0.48203 1.0995-2.7771c0.60446-1.5274 1.6833-3.7585 2.3967-4.9586l1.2972-2.1811 2.393-2.007c1.3159-1.104 3.1554-2.4536 4.0881-2.9999 0.9319-0.54629 2.513-1.2842 3.5141-1.6404l1.8199-0.64757 5.8616-0.03287 4.3565 1.9952 2.9853 2.6213 1.9764 4.2224 0.92665 4.4014 0.39203 5.7436c0.21594 3.1581 0.39506 7.3462 0.39811 9.3068l0.0087 3.5645h0.38338c0.21074 0 0.49671-0.18333 0.635-0.40757l0.25182-0.40757h1.6833l-0.26438 1.324c-0.1454 0.72813-0.80986 2.4903-1.4766 3.9159l-1.2121 2.5919v1.5384h0.43009c0.23626 0 1.4736-0.53531 2.7497-1.1899 3.4192-1.7537 5.9755-2.884 6.5206-2.884h0.48247v0.37857c0 0.20822-0.74602 1.5018-1.6576 2.8742l-1.6576 2.4956-0.31418 1.9863-0.31413 1.9863-1.3202 2.0147-4.3118 2.4467-2.2128 0.6492c-1.217 0.35703-2.3169 0.62398-2.4442 0.59348-0.12722-0.03073-0.64027-0.13444-1.1402-0.23098zm-14.571-9.2745 3.1297-0.59877 2.3039-1.0506c1.2671-0.57802 2.9922-1.5254 3.8335-2.1059l1.5295-1.0552 1.6259-2.631v-3.404l-2.0001-1.9997h-1.5669l-1.2244-1.8329-1.5592 1.4005-5.5157 1.7036-1.5018 1.3277c-0.82616 0.73015-2.3658 1.937-3.4218 2.6818l-1.9201 1.3545-0.99252 1.4692c-0.5459 0.80826-1.1178 1.8907-1.2708 2.406l-0.27823 0.93639 1.3087 1.9968h4.3892z" stroke-width="1.1449"/>
 <path d="m8.7637 95.506-1.5281-0.57439-2.3572-2.2387-1.5537-3.0214-0.44442-3.751 1.8875-2.1942 4.9578-0.58467 1.3471-1.3471 0.20298-3.6483 0.20289-3.6483 2.3738-0.40413 0.12275-1.0615 0.12282-1.0615-1.112-0.70791c-0.61152-0.38941-1.2427-0.89006-1.4024-1.1128l-0.29077-0.40494-0.01597-22.77 0.4946-0.15239c0.27197-0.08381 0.96472-0.25475 1.5391-0.37982l1.0445-0.22747 0.25135-0.6546 0.25126-0.6546-0.50447-0.67515c-0.27739-0.37137-1.1038-1.4581-1.8362-2.415l-1.3317-1.7398 0.31984-6.3288c0.17586-3.4815 0.3301-8.0512 0.34266-10.157l0.023122-3.8265-1.9109-2.0326-4.4206-1.6478-1.7165-1.603-1.6853-3.9173-0.13036-4.6774 1.8531-1.9728 6.8226-2.4935 12.267-2.2886 14.241 0.016804 7.6086 0.74033 3.2513 1.1868c1.788 0.65262 4.3535 1.8023 5.6966 2.5543 1.3456 0.75256 3.2525 2.0775 4.2388 2.9451l1.7916 1.577 5.021 7.0003 3.7921 7.9128 1.3289 5.1436 0.07161 5.9336-1.0248 4.3535-3.0936 6.3288-2.2731 2.6413c-1.2503 1.4527-3.1635 3.4318-4.2507 4.3969-1.0879 0.96629-3.3725 2.7567-5.0764 3.9782l-3.0988 2.2226-4.8157 2.3293c-6.068 2.9365-13.152 5.7718-16.486 6.6012-1.4143 0.35136-3.2316 0.80827-4.0374 1.0153l-1.4656 0.37624-1.2228 1.2228v10.263l1.8149 1.8149 3.2256 0.51594 0.99078 1.1938 4.0571 0.01145 3.4156 1.1894 0.36654-0.22647c0.34502-0.21327 8.6753-0.65618 11.251-0.5985 0.65262 0.01466 1.8101 0.02906 2.5718 0.03236 0.76166 0.0024 1.6271 0.09253 1.9239 0.19884l0.53921 0.19323-0.97735 1.1772h-0.61785c-0.33985 0-1.4308 0.3782-2.4244 0.84067-0.99355 0.46221-2.8747 1.3368-4.1796 1.9437-1.3056 0.6068-3.4421 1.4048-4.7485 1.7733-1.3056 0.36855-2.9586 0.9181-3.6732 1.2216l-1.2994 0.55109h-2.962l-0.86516 0.60572c-1.2933 0.90584-3.8229 1.7247-8.0156 2.5951l-3.7585 0.78024-9.497 0.39544-1.5284-0.5744zm29.565-44.048 3.5072-1.3858 3.4243 0.51356 1.2685-1.9361-0.47643-1.8986 1.5612-1.4134 1.6991 0.90942 1.2045-0.99987-0.22013-1.1005-0.22008-1.1005 1.9764-2.2586c2.4686-2.8213 4.4602-5.8032 5.8389-8.7423l1.0642-2.2716 2.39e-4 -3.561 2.4e-4 -3.561-2.1052-4.4917-3.2382-3.5128-4.6142-2.0704-6.072-0.90308-3.8549 0.46775c-2.1202 0.25727-4.152 0.55347-4.5154 0.65815l-0.66013 0.19058-2.7409-2.4067h-1.6481l-0.40964 0.76522c-0.2252 0.42073-0.40968 1.1923-0.40968 1.7141v0.94892l-1.4527 0.95642c-0.79879 0.52621-1.8015 1.4308-2.2277 2.0104l-0.77509 1.0541-0.32557 6.2655-0.32565 6.2655-0.03656 22.597 0.4946 0.6234c0.27197 0.343 0.76166 0.70359 1.0879 0.80155l0.59336 0.1781 9.098-1.9216 3.5072-1.3858z" stroke-width="1.1118"/>
</svg>
